<define-tag pagetitle>DSA-4733-1 qemu</define-tag>
<define-tag report_date>2020-7-24</define-tag>
<define-tag secrefs>CVE-2020-8608 Bug#964793</define-tag>
<define-tag packages>qemu</define-tag>
<define-tag isvulnerable>yes</define-tag>
<define-tag fixed>yes</define-tag>
<define-tag fixed-section>no</define-tag>

#use wml::debian::security



</dl>
