<define-tag pagetitle>DLA-1059-1 strongswan</define-tag>
<define-tag report_date>2017-8-18</define-tag>
<define-tag secrefs>CVE-2017-11185 Bug##872155</define-tag>
<define-tag packages>strongswan</define-tag>
<define-tag isvulnerable>yes</define-tag>
<define-tag fixed>yes</define-tag>
<define-tag fixed-section>no</define-tag>

#use wml::debian::security

