<define-tag pagetitle>DLA-2119-1 python-pysaml2</define-tag>
<define-tag report_date>2020-02-26</define-tag>
<define-tag secrefs>CVE-2020-5390 Bug#949322</define-tag>
<define-tag packages>python-pysaml2</define-tag>
<define-tag isvulnerable>yes</define-tag>
<define-tag fixed>yes</define-tag>
<define-tag fixed-section>no</define-tag>

#use wml::debian::security

