<define-tag pagetitle>DLA-2058-1 nss</define-tag>
<define-tag report_date>2020-1-7</define-tag>
<define-tag secrefs>CVE-2019-17006</define-tag>
<define-tag packages>nss</define-tag>
<define-tag isvulnerable>yes</define-tag>
<define-tag fixed>yes</define-tag>
<define-tag fixed-section>no</define-tag>

#use wml::debian::security

