<define-tag pagetitle>DLA-2069-1 cacti</define-tag>
<define-tag report_date>2020-01-18</define-tag>
<define-tag secrefs>CVE-2020-7106</define-tag>
<define-tag packages>cacti</define-tag>
<define-tag isvulnerable>yes</define-tag>
<define-tag fixed>yes</define-tag>
<define-tag fixed-section>no</define-tag>

#use wml::debian::security
