<define-tag pagetitle>DLA-1544-1 tomcat7</define-tag>
<define-tag report_date>2018-10-14</define-tag>
<define-tag secrefs>CVE-2018-11784</define-tag>
<define-tag packages>tomcat7</define-tag>
<define-tag isvulnerable>yes</define-tag>
<define-tag fixed>yes</define-tag>
<define-tag fixed-section>no</define-tag>

#use wml::debian::security

