<define-tag pagetitle>DLA-1560-1 gnutls28</define-tag>
<define-tag report_date>2018-10-30</define-tag>
<define-tag secrefs>CVE-2018-10844 CVE-2018-10845 CVE-2018-10846</define-tag>
<define-tag packages>gnutls28</define-tag>
<define-tag isvulnerable>yes</define-tag>
<define-tag fixed>yes</define-tag>
<define-tag fixed-section>no</define-tag>

#use wml::debian::security

