<define-tag pagetitle>DLA-1283-1 python-crypto</define-tag>
<define-tag report_date>2018-2-15</define-tag>
<define-tag secrefs>CVE-2018-6594 Bug#889999</define-tag>
<define-tag packages>python-crypto</define-tag>
<define-tag isvulnerable>yes</define-tag>
<define-tag fixed>yes</define-tag>
<define-tag fixed-section>no</define-tag>

#use wml::debian::security

