<define-tag pagetitle>DSA-4405-1 openjpeg2</define-tag>
<define-tag report_date>2019-3-10</define-tag>
<define-tag secrefs>CVE-2017-17480 CVE-2018-5785 CVE-2018-6616 CVE-2018-14423 CVE-2018-18088 Bug#884738 Bug#888533 Bug#889683 Bug#904873 Bug#910763</define-tag>
<define-tag packages>openjpeg2</define-tag>
<define-tag isvulnerable>yes</define-tag>
<define-tag fixed>yes</define-tag>
<define-tag fixed-section>no</define-tag>

#use wml::debian::security



</dl>
