<define-tag pagetitle>DLA-1747-1 firmware-nonfree</define-tag>
<define-tag report_date>2019-04-02</define-tag>
<define-tag secrefs>CVE-2018-5383</define-tag>
<define-tag packages>firmware-nonfree</define-tag>
<define-tag isvulnerable>yes</define-tag>
<define-tag fixed>yes</define-tag>
<define-tag fixed-section>no</define-tag>

#use wml::debian::security

