<define-tag pagetitle>DLA-1833-1 bzip2</define-tag>
<define-tag report_date>2019-6-24</define-tag>
<define-tag secrefs>CVE-2016-3189 CVE-2019-12900</define-tag>
<define-tag packages>bzip2</define-tag>
<define-tag isvulnerable>yes</define-tag>
<define-tag fixed>yes</define-tag>
<define-tag fixed-section>no</define-tag>

#use wml::debian::security

